school_name,school_level,clus_name,CODE,district,zip,all_pop,white_pop,black_pop,hisp_pop,econ_pop,disab_pop,teacher_ratio,counselor_ratio,sro_ratio,all_exp_count,all_oss_count,all_iss_count,all_LE,all_arrest,white_exp_count,white_oss_count,white_iss_count,white_LE,white_arrest,black_exp_count,black_oss_count,black_iss_count,black_LE,black_arrest,hisp_exp_count,hisp_oss_count,hisp_iss_count,hisp_LE,hisp_arrest,econ_exp_count,econ_oss_count,econ_iss_count,econ_LE,econ_arrest,disab_exp_count,disab_oss_count,disab_iss_count,disab_LE,disab_arrest,grad_rate
Antioch High School,High,Antioch,110,"6,7",37013,2355,554,855,858,985,253,16.94,343,1029,16,834,610,7,7,2,167,115,0,0,12,376,250,5,5,2,273,235,2,2,11,383,305,NA,NA,5,99,85,7,7,80.1%
Cane Ridge High School,High,Cane Ridge,182,"6,7",37013,2085,391,828,703,881,203,18.96,309,927,6,317,352,0,0,0,48,52,0,0,6,160,162,0,0,1,94,120,0,0,4,153,191,NA,NA,2,34,50,0,0,82.6%
Glencliff High School,High,Glencliff,325,7,37211,1479,296,320,775,766,158,16.53,315.75,631.5,7,0,272,4,5,1,0,48,0,0,3,0,101,2,3,4,0,121,2,2,5,0,168,NA,NA,1,0,46,4,4,68.4%
Hillsboro High School,High,Hillsboro,435,8,37215,1312,523,674,69,410,186,17.99,404.67,607,7,0,213,5,7,0,0,23,1,1,6,0,182,4,6,1,0,5,0,0,4,0,131,NA,NA,0,0,55,5,6,89.2%
Hillwood High School,High,Hillwood,440,9,37205,1243,534,425,190,437,185,16.73,276,552,14,443,169,1,1,3,151,56,0,0,11,218,91,0,0,0,61,17,1,1,11,192,95,NA,NA,3,80,40,1,1,85.1%
Hunter's Lane High School,High,Hunters Lane,452,3,37207,1642,269,795,556,900,185,16.82,286,715,20,821,171,0,0,2,104,17,0,0,15,447,124,0,0,3,262,29,0,0,15,498,116,NA,NA,3,98,28,0,0,82.7%
John Overton High School,High,Overton,615,2,37220,2270,719,472,806,1038,200,16.37,407.6,1019,16,356,166,2,4,6,117,57,0,1,5,84,50,1,1,5,139,50,1,2,11,187,86,NA,NA,3,45,27,2,2,79.4%
Maplewood High School,High,Maplewood,550,3,37216,1029,85,745,187,684,160,15.06,218.75,437.5,15,424,228,11,13,1,23,12,0,0,14,339,197,11,13,0,61,19,0,0,12,293,176,NA,NA,2,69,50,11,11,85.5%
McGavock High School,High,McGavock,532,4,37214,2683,1070,1067,464,1205,355,17.67,286.47,1217.5,21,537,483,7,8,6,158,154,1,1,13,294,258,4,5,3,79,64,1,1,14,325,284,NA,NA,5,113,109,7,8,75.7%
Pearl-Cohn High School,High,Pearl Cohn,632,5,37208,785,24,729,30,593,169,13.43,176.25,352.5,16,342,131,5,6,0,3,3,0,0,16,333,126,5,6,0,6,2,0,0,13,280,110,NA,NA,6,76,34,5,5,75.4%
Stratford Stem Magnet High School,High,Stratford,705,5,37216,1301,199,978,91,958,195,15.9,278.25,371,5,5,407,5,5,1,1,39,0,0,4,4,350,5,5,0,0,14,0,0,4,5,355,NA,NA,1,1,78,5,3,81.5%
Whites Creek High School,High,Whites Creek,787,1,37189,835,109,677,44,526,166,14.33,172,344,9,211,171,10,6,0,19,20,1,0,9,186,149,9,6,0,6,2,0,0,8,144,118,NA,NA,3,50,54,6,6,82.8%
Antioch Middle School,Middle,Cane Ridge,182,6,37013,925,148,298,401,502,111,15.88,389,778,0,32,69,0,0,0,1,7,0,0,0,23,40,0,0,0,7,20,0,0,0,24,47,NA,NA,0,7,13,0,0,NA
Apollo Middle School,Middle,Antioch,110,6,37013,968,179,307,438,543,124,15.98,415.5,831,0,174,98,0,0,0,27,17,0,0,0,84,43,0,0,0,60,35,0,0,0,103,63,NA,NA,0,38,18,0,0,NA
Bellevue Middle School,Middle,Hillwood,440,9,37221,712,355,246,68,248,105,15.05,316,632,0,139,80,6,7,0,50,13,1,1,0,81,61,5,6,0,7,6,0,0,0,70,49,NA,NA,0,27,17,6,6,NA
Croft Middle School ,Middle,Overton,615,7,37211,775,261,153,338,339,84,16,388.57,680,0,93,64,0,0,0,37,30,0,0,0,19,17,0,0,0,37,17,0,0,0,38,33,NA,NA,0,12,12,0,0,NA
Donelson Middle School ,Middle,McGavock,532,4,37214,888,299,422,146,468,131,15.38,772,772,0,255,140,1,1,0,52,25,0,0,0,179,100,1,1,0,20,9,0,0,0,174,104,NA,NA,0,38,30,1,1,NA
DuPont Hadley Middle School ,Middle,McGavock,532,4,37138,733,406,208,101,300,107,16.6,664,664,1,0,88,1,1,0,0,44,1,1,1,0,40,0,0,0,0,4,0,0,1,0,52,NA,NA,0,0,17,1,1,NA
Goodlettsville Middle School ,Middle,Hunters Lane,452,3,37072,670,183,303,161,350,93,18.58,288,576,0,103,99,2,2,0,24,22,0,0,0,71,69,1,1,0,8,8,1,1,0,61,71,NA,NA,0,22,24,2,2,NA
H.G. Hill Middle School ,Middle,Hillwood,440,9,37205,732,305,231,141,335,121,16.85,657,657,0,128,88,1,3,0,38,33,0,1,0,79,50,1,2,0,11,5,0,0,0,87,58,NA,NA,0,35,27,1,1,NA
Haynes Middle Health/Medical Science Design Center ,Middle,Whites Creek,787,1,37212,267,6,260,1,171,47,13.32,253,253,0,91,50,0,0,NA,NA,NA,0,0,0,89,50,0,0,NA,NA,NA,0,0,0,64,41,NA,NA,0,21,16,0,0,NA
Isaac Litton Middle School,Middle,Stratford,705,3,37216,550,241,235,63,241,86,16.83,505,505,0,135,51,5,4,0,32,9,3,1,0,90,38,1,1,0,12,3,0,0,0,88,35,NA,NA,0,34,23,5,4,NA
J.T. Moore Middle School,Middle,Hillsboro,435,8,37204,375,54,212,107,290,60,16.63,682,682,0,1,52,0,0,0,0,4,0,0,0,1,44,0,0,0,0,4,0,0,0,1,48,NA,NA,0,1,9,0,0,NA
Jere Baxter Middle School ,Middle,Maplewood,550,3,37207,433,36,370,20,339,80,14,294,294,0,2,151,0,0,0,0,0,0,0,0,2,149,0,0,0,0,1,0,0,0,2,142,NA,NA,0,2,40,0,0,NA
John Early Museum Magnet Middle School ,Middle,Pearl Cohn,632,1,37208,895,178,398,296,389,89,14.23,370,370,0,8,77,1,1,0,2,12,0,0,0,4,51,1,1,0,2,13,0,0,0,2,44,NA,NA,0,1,11,1,1,NA
John F. Kennedy Middle School ,Middle,Antioch,110,6,37013,740,441,221,48,199,104,16.42,394,788,0,109,67,0,0,0,23,8,0,0,0,80,56,0,0,0,4,2,0,0,0,69,50,NA,NA,0,31,29,0,0,NA
Madison Middle School,Middle,Hunters Lane,452,3,37115,704,119,385,193,477,109,14.35,574,NA,0,103,172,1,1,0,9,21,0,0,0,80,131,1,1,0,14,20,0,0,0,79,137,NA,NA,0,23,45,1,1,NA
Margaret Allen Middle School,Middle,Antioch,110,4,37210,524,111,238,160,289,71,14.9,447,447,0,5,35,2,2,0,1,1,0,0,0,3,24,1,1,0,1,10,1,1,0,4,25,NA,NA,0,1,7,2,2,NA
McKissack Middle School,Middle,Pearl Cohn,632,1,37209,944,109,179,523,616,83,13.83,166,332,1,156,71,2,2,0,10,7,0,0,1,46,17,2,2,0,82,40,0,0,1,99,39,NA,NA,0,20,16,2,2,NA
McMurray Middle School,Middle,Overton,615,2,37211,408,25,347,34,340,81,13.51,402,804,0,67,80,0,0,0,1,0,0,0,0,62,79,0,0,0,4,1,0,0,0,61,75,NA,NA,0,20,22,0,0,NA
Oliver Middle School,Middle,Overton,615,2,37211,1046,207,413,355,447,148,17.49,441.5,883,0,60,36,0,0,0,6,3,0,0,0,35,24,0,0,0,19,7,0,0,0,29,21,NA,NA,0,16,10,0,0,NA
Thurgood Marshall Middle School,Middle,Cane Ridge,182,6,37013,500,143,236,106,305,62,17.18,459.5,919,0,0,72,1,1,0,0,9,0,0,0,0,55,0,0,0,0,8,0,0,0,0,64,NA,NA,0,0,12,1,1,NA
Two Rivers Middle School,Middle,McGavock,532,4,37214,542,244,239,32,157,107,15,420,420,1,82,69,2,2,0,16,11,0,0,1,61,53,2,2,0,5,4,0,0,1,54,46,NA,NA,0,26,20,2,2,NA
West End Middle School,Middle,Hillsboro,435,8,37205,981,431,291,161,321,96,17.38,245,490,0,106,63,5,5,0,45,31,1,1,0,50,26,2,2,0,10,6,2,2,0,50,34,NA,NA,0,23,16,5,4,NA
Wright Middle School,Middle,Glencliff,325,7,37211,865,167,160,493,546,102,15.8,359.5,719,1,152,149,4,4,0,26,27,2,2,1,41,40,2,2,0,83,79,0,0,1,108,110,NA,NA,0,25,36,4,4,NA